^C:\PROGRAMIRANJE\OBJEKTNO\OBJEKTNO123\VJEZBA5\VJEZBA5\FUN1.CPP
/c /ZI /JMC /nologo /W3 /WX- /diagnostics:column /sdl /Od /Oy- /D WIN32 /D _DEBUG /D _CONSOLE /D _UNICODE /D UNICODE /Gm- /EHsc /RTC1 /MDd /GS /fp:precise /permissive- /Zc:wchar_t /Zc:forScope /Zc:inline /Fo"DEBUG\\" /Fd"DEBUG\VC142.PDB" /Gd /TP /analyze- /FC C:\PROGRAMIRANJE\OBJEKTNO\OBJEKTNO123\VJEZBA5\VJEZBA5\FUN1.CPP
^C:\PROGRAMIRANJE\OBJEKTNO\OBJEKTNO123\VJEZBA5\VJEZBA5\FUN.HPP
/c /ZI /JMC /nologo /W3 /WX- /diagnostics:column /sdl /Od /Oy- /D WIN32 /D _DEBUG /D _CONSOLE /D _UNICODE /D UNICODE /Gm- /EHsc /RTC1 /MDd /GS /fp:precise /permissive- /Zc:wchar_t /Zc:forScope /Zc:inline /Fo"DEBUG\\" /Fd"DEBUG\VC142.PDB" /Gd /TP /analyze- /FC C:\PROGRAMIRANJE\OBJEKTNO\OBJEKTNO123\VJEZBA5\VJEZBA5\FUN.HPP
^C:\PROGRAMIRANJE\OBJEKTNO\OBJEKTNO123\VJEZBA5\VJEZBA5\MAIN.CPP
/c /ZI /JMC /nologo /W3 /WX- /diagnostics:column /sdl /Od /Oy- /D WIN32 /D _DEBUG /D _CONSOLE /D _UNICODE /D UNICODE /Gm- /EHsc /RTC1 /MDd /GS /fp:precise /permissive- /Zc:wchar_t /Zc:forScope /Zc:inline /Fo"DEBUG\\" /Fd"DEBUG\VC142.PDB" /Gd /TP /analyze- /FC C:\PROGRAMIRANJE\OBJEKTNO\OBJEKTNO123\VJEZBA5\VJEZBA5\MAIN.CPP
