^C:\PROGRAMIRANJE\OBJEKTNO\DANKO_BRNIC-VJEZBE(NOVO)\VJEZBA2\VJEZBA2\DEBUG\FUNKCIJE.OBJ|C:\PROGRAMIRANJE\OBJEKTNO\DANKO_BRNIC-VJEZBE(NOVO)\VJEZBA2\VJEZBA2\DEBUG\MAINOVI.OBJ
C:\PROGRAMIRANJE\OBJEKTNO\DANKO_BRNIC-VJEZBE(NOVO)\VJEZBA2\DEBUG\VJEZBA2.EXE
C:\PROGRAMIRANJE\OBJEKTNO\DANKO_BRNIC-VJEZBE(NOVO)\VJEZBA2\DEBUG\VJEZBA2.ILK
C:\PROGRAMIRANJE\OBJEKTNO\DANKO_BRNIC-VJEZBE(NOVO)\VJEZBA2\DEBUG\VJEZBA2.PDB
